…
    ##   f2_cent = col_double(),
    ##   tl = col_double(),
    ##   f1_20 = col_double(),
    ##   f1_35 = col_double(),
    ##   f1_50 = col_double(),
    ##   f1_65 = col_double(),
    ##   f1_80 = col_double(),
    ##   f2_20 = col_double(),
    ##   f2_35 = col_double(),
    ##   f2_50 = col_double(),
    ##   f2_65 = col_double(),
    ##   f2_80 = col_double()
    ## )

    ## # A tibble: 36 x 17
    ##    id    item  vowel language f1_cent f2_cent     tl f1_20 f1_35 f1_50 f1_65
    ##    <chr> <chr> <chr> <chr>      <dbl>   <dbl>  <dbl> <dbl> <dbl> <dbl> <dbl>
    ##  1 jjgp  meet  i     en          359.   1655. 5893.   482.  400.  293.  335.
    ##  2 jjgp  beat  i     en          317.   2537.  220.   307.  294.  282.  310.
    ##  3 jjgp  feet  i     en          343.   2569.  207.   324.  351.  384.  328.
    ##  4 jjgp  seat  i     en          336.   2555.  190.   334.  359.  349.  295.
    ##  5 jjgp  heat  i     en          327.   2600.   86.7  311.  318.  354.  327.
    ##  6 jjgp  fleet i     en          333.   2308. 2385.   326.  306.  331.  345.
    ##  7 jjgp  moss  a     en          623.    945.  144.   604.  613.  626.  635.
    ##  8 jjgp  bot   a     en          622.   1027.  382.   618.  624.  628.  643.
    ##  9 jjgp  foug… a     en          620.   1032.  427.   610.  615.  615.  664.
    ## 10 jjgp  soug… a     en          619.   1054.  183.   615.  626.  660.  638.
    ## # … with 26 more rows, and 6 more variables: f1_80 <dbl>, f2_20 <dbl>,
    ## #   f2_35 <dbl>, f2_50 <dbl>, f2_65 <dbl>, f2_80 <dbl>
…
